[1]
11
-2x1

[2]
11.
.11
-2x1
-2x1

[3]
..1
111
-2x1
-2x1

[4]
11
.11
11
-2x1
-2x1
-2x1

[5]
11
11
11
-2x1
-2x1
-2x1

[6]
.11
1..1
1..1
.11
-2x1
-2x1
-2x1
-2x1

[7]
..1
111
.111
.1
-2x1
-2x1
-2x1
-2x1

[8]
11
11
-2x1
-2x1

[9]
11
11
-2x2

[10]
..1
111
11.
-2x2
-2x1

[11]
..11
1111
-2x2
-2x1

[12]
..11
1111
11..
-2x2
-2x2

[13]
11
11
11
11
-2x2
-2x2

[14]
1111
1111
1111
1111
-2x2
-2x2
-2x2
-2x2

[15]
.1111
.1111
11..11
-2x2
-2x2
-2x1
-2x1

[16]
11..11
.1111
.1111
..11
..11
-2x1
-2x1
-2x2
-2x2
-2x2

[17]
11.11..11....
.111111111111
.11..11..11
11
-2x1
-2x1
-2x1
-2x2
-2x2
-2x2
-2x2
-2x2

[18]
11
11
11
-2x1
-2x2

[19]
11
11
11
-2x3

[20]
....11
..1111
111111
-2x1
-2x2
-2x3

[21]
1111
1111
1111
-2x1
-2x2
-2x3

[22]
...11
11111
11111
-2x3
-2x3

[23]
....11
..1111
111111
1111
11
-2x3
-2x3
-2x3

[24]
...11
...11
11111
111.111
..11111
..11
..11
-2x3
-2x3
-2x3
-2x3

[25]
..1111..
11111111
11111111
.11..11
-2x3
-2x3
-2x2
-2x2
-2x1
-2x1

[26]
.1..1.
.1..1.
111111
111111
.1111
11..11
11..11
11..11
-2x1
-2x1
-3x2
-3x2
-3x2
-3x2
-2x1
-2x1

[27]
11
11
11
11
-2x3
-2x1

[28]
11
11
11
11
-2x4

[29]
......11
....1111
..111111
11111111
-2x1
-2x2
-2x3
-2x4

[30]
1111
1111
1111
1111
-2x1
-2x3
-2x4

[31]
1111
1111
1111
1111
-2x2
-2x2
-2x4

[32]
....11
....11
111111
111111
-2x4
-2x4

[33]
....11
....11
111111
111111
..111111
..111111
..11
..11
-2x4
-2x4
-2x4
-2x4

[34]
....11
....11
..111111
..111111
1111..1111
1111..1111
..111111
..111111
....11
....11
-2x2
-2x2
-2x2
-2x2
-2x4
-2x4
-2x4
-2x4

[35]
...11
...111
1111
1111
.11
-2x1
-2x4
-2x2
-1x1

[36]
11
11
11
11
11
-2x4
-2x1

[37]
11
11
11
11
11
-2x5

[38]
........11
......1111
....111111
..11111111
1111111111
-2x1
-2x2
-2x3
-2x4
-2x5

[39]
..1111
1111
1111
1111
1111
-2x4
-2x5
-2x1

[40]
1111
1111
1111
1111
1111
-2x5
-2x4
-2x1

[41]
111111
..1111
1111..
111111
111111
11..11
-2x1
-2x4
-2x5
-2x2
-2x3

[42]
111111
111111
111111
111111
111111
-2x2
-2x3
-2x1
-2x4
-2x5

[43]
111111111
111111111
11.....11
111111111
111111111
-2x5
-2x5
-2x5
-2x5

[44]
1111111
1111111
..1..11
..1..11
.....11
-2x5
-2x1
-2x2
-2x3

[45]
.11111
.11111
11.1.11
11.1.11
-2x5
-2x2
-2x2
-2x1

[46]
11111
11111
11111
11111
-2x5
-2x2
-2x2
-2x1

[47]
11
11
11
11
11
11
-2x1
-2x5

[48]
11
11
11
11
11
11
-2x6

[49]
..........11
........1111
......111111
....11111111
..1111111111
111111111111
-2x1
-2x2
-2x3
-2x4
-2x5
-2x6

[50]
11111111
11..1111
1111..11
111111
11111111
11111111
..111111
-2x6
-2x1
-2x5
-2x2
-2x4
-2x3
-2x3

































